{
    "internship_table": {
        "column": {
            "id": true,
            "name": true,
            "avatar": true,
            "description": true,
            "dob": true
        },
        "constraint": {
            "PRIMARY": true
        }
    }
}